EESchema Schematic File Version 4
LIBS:avrivoiusb-cache
EELAYER 26 0
EELAYER END
$Descr A4 11693 8268
encoding utf-8
Sheet 1 1
Title ""
Date ""
Rev ""
Comp ""
Comment1 ""
Comment2 ""
Comment3 ""
Comment4 ""
$EndDescr
$Comp
L avrivoi:avrivoi_audio U1
U 1 1 5D8B1FEA
P 3250 2400
F 0 "U1" H 4050 3000 50  0000 L CNN
F 1 "avrivoi_audio" H 3750 2100 50  0000 L CNN
F 2 "avrivoi:avrivoi_audio" H 3500 2400 50  0001 C CNN
F 3 "" H 3500 2400 50  0001 C CNN
	1    3250 2400
	1    0    0    -1  
$EndComp
$Comp
L Diode:BAS40-04 D1
U 1 1 5D8B2430
P 2800 3100
F 0 "D1" H 2800 3425 50  0000 C CNN
F 1 "BAS40-04" H 2800 3334 50  0000 C CNN
F 2 "Package_TO_SOT_SMD:SOT-23" H 2550 3400 50  0001 L CNN
F 3 "http://www.vishay.com/docs/85701/bas40v.pdf" H 2680 3200 50  0001 C CNN
	1    2800 3100
	1    0    0    -1  
$EndComp
$Comp
L Diode:BAS40-04 D2
U 1 1 5D8B252B
P 2800 3600
F 0 "D2" H 2800 3832 50  0000 C CNN
F 1 "BAS40-04" H 2800 3923 50  0000 C CNN
F 2 "Package_TO_SOT_SMD:SOT-23" H 2550 3900 50  0001 L CNN
F 3 "http://www.vishay.com/docs/85701/bas40v.pdf" H 2680 3700 50  0001 C CNN
	1    2800 3600
	-1   0    0    1   
$EndComp
$Comp
L Diode:BAS40-04 D3
U 1 1 5D8B2571
P 4400 3100
F 0 "D3" H 4400 3425 50  0000 C CNN
F 1 "BAS40-04" H 4400 3334 50  0000 C CNN
F 2 "Package_TO_SOT_SMD:SOT-23" H 4150 3400 50  0001 L CNN
F 3 "http://www.vishay.com/docs/85701/bas40v.pdf" H 4280 3200 50  0001 C CNN
	1    4400 3100
	1    0    0    -1  
$EndComp
$Comp
L Diode:BAS40-04 D4
U 1 1 5D8B260A
P 4400 3600
F 0 "D4" H 4400 3832 50  0000 C CNN
F 1 "BAS40-04" H 4400 3923 50  0000 C CNN
F 2 "Package_TO_SOT_SMD:SOT-23" H 4150 3900 50  0001 L CNN
F 3 "http://www.vishay.com/docs/85701/bas40v.pdf" H 4280 3700 50  0001 C CNN
	1    4400 3600
	-1   0    0    1   
$EndComp
$Comp
L power:VDD #PWR0101
U 1 1 5D8B29C3
P 2500 2150
F 0 "#PWR0101" H 2500 2000 50  0001 C CNN
F 1 "VDD" H 2517 2323 50  0000 C CNN
F 2 "" H 2500 2150 50  0001 C CNN
F 3 "" H 2500 2150 50  0001 C CNN
	1    2500 2150
	1    0    0    -1  
$EndComp
$Comp
L power:VDD #PWR0102
U 1 1 5D8B2A72
P 3200 3000
F 0 "#PWR0102" H 3200 2850 50  0001 C CNN
F 1 "VDD" H 3217 3173 50  0000 C CNN
F 2 "" H 3200 3000 50  0001 C CNN
F 3 "" H 3200 3000 50  0001 C CNN
	1    3200 3000
	1    0    0    -1  
$EndComp
$Comp
L power:VDD #PWR0103
U 1 1 5D8B2AA6
P 2350 3700
F 0 "#PWR0103" H 2350 3550 50  0001 C CNN
F 1 "VDD" H 2367 3873 50  0000 C CNN
F 2 "" H 2350 3700 50  0001 C CNN
F 3 "" H 2350 3700 50  0001 C CNN
	1    2350 3700
	1    0    0    -1  
$EndComp
$Comp
L power:VDD #PWR0104
U 1 1 5D8B2C7E
P 4850 3000
F 0 "#PWR0104" H 4850 2850 50  0001 C CNN
F 1 "VDD" H 4868 3173 50  0000 C CNN
F 2 "" H 4850 3000 50  0001 C CNN
F 3 "" H 4850 3000 50  0001 C CNN
	1    4850 3000
	-1   0    0    1   
$EndComp
$Comp
L power:VDD #PWR0105
U 1 1 5D8B2CBE
P 4000 3700
F 0 "#PWR0105" H 4000 3550 50  0001 C CNN
F 1 "VDD" H 4018 3873 50  0000 C CNN
F 2 "" H 4000 3700 50  0001 C CNN
F 3 "" H 4000 3700 50  0001 C CNN
	1    4000 3700
	-1   0    0    1   
$EndComp
$Comp
L power:GND #PWR0106
U 1 1 5D8B2D3D
P 4850 3700
F 0 "#PWR0106" H 4850 3450 50  0001 C CNN
F 1 "GND" H 4855 3527 50  0000 C CNN
F 2 "" H 4850 3700 50  0001 C CNN
F 3 "" H 4850 3700 50  0001 C CNN
	1    4850 3700
	1    0    0    -1  
$EndComp
$Comp
L power:GND #PWR0107
U 1 1 5D8B2D61
P 4000 3000
F 0 "#PWR0107" H 4000 2750 50  0001 C CNN
F 1 "GND" H 4005 2827 50  0000 C CNN
F 2 "" H 4000 3000 50  0001 C CNN
F 3 "" H 4000 3000 50  0001 C CNN
	1    4000 3000
	-1   0    0    1   
$EndComp
$Comp
L power:GND #PWR0108
U 1 1 5D8B2D78
P 3200 3700
F 0 "#PWR0108" H 3200 3450 50  0001 C CNN
F 1 "GND" H 3205 3527 50  0000 C CNN
F 2 "" H 3200 3700 50  0001 C CNN
F 3 "" H 3200 3700 50  0001 C CNN
	1    3200 3700
	1    0    0    -1  
$EndComp
$Comp
L power:GND #PWR0109
U 1 1 5D8B2D8F
P 2350 3000
F 0 "#PWR0109" H 2350 2750 50  0001 C CNN
F 1 "GND" H 2355 2827 50  0000 C CNN
F 2 "" H 2350 3000 50  0001 C CNN
F 3 "" H 2350 3000 50  0001 C CNN
	1    2350 3000
	1    0    0    -1  
$EndComp
Wire Wire Line
	2500 2150 2650 2150
Wire Wire Line
	2650 2150 2650 2250
Connection ~ 2650 2150
$Comp
L power:GND #PWR0110
U 1 1 5D8B390B
P 4500 2350
F 0 "#PWR0110" H 4500 2100 50  0001 C CNN
F 1 "GND" H 4505 2177 50  0000 C CNN
F 2 "" H 4500 2350 50  0001 C CNN
F 3 "" H 4500 2350 50  0001 C CNN
	1    4500 2350
	1    0    0    -1  
$EndComp
Wire Wire Line
	4300 2350 4500 2350
Wire Wire Line
	4300 2350 4300 2250
Connection ~ 4300 2350
Wire Wire Line
	4300 2250 4300 2150
Connection ~ 4300 2250
NoConn ~ 2650 2350
Wire Wire Line
	3100 1550 3100 1750
Wire Wire Line
	3250 1750 3250 1650
Wire Wire Line
	3250 1650 3200 1650
Wire Wire Line
	3200 1650 3200 1550
$Comp
L Device:C C1
U 1 1 5D8B5431
P 3800 1500
F 0 "C1" H 3915 1546 50  0000 L CNN
F 1 "100n" H 3915 1455 50  0000 L CNN
F 2 "Capacitor_THT:C_Disc_D5.0mm_W2.5mm_P5.00mm" H 3838 1350 50  0001 C CNN
F 3 "~" H 3800 1500 50  0001 C CNN
	1    3800 1500
	1    0    0    -1  
$EndComp
$Comp
L power:GND #PWR0111
U 1 1 5D8B5518
P 4000 1150
F 0 "#PWR0111" H 4000 900 50  0001 C CNN
F 1 "GND" H 4005 977 50  0000 C CNN
F 2 "" H 4000 1150 50  0001 C CNN
F 3 "" H 4000 1150 50  0001 C CNN
	1    4000 1150
	1    0    0    -1  
$EndComp
Wire Wire Line
	3800 1750 3800 1650
Wire Wire Line
	3800 1350 3800 1150
Wire Wire Line
	3800 1150 4000 1150
$Comp
L Device:R R2
U 1 1 5D8B5ED9
P 3350 3900
F 0 "R2" V 3450 4000 50  0000 C CNN
F 1 "1k" V 3300 4050 50  0000 C CNN
F 2 "Resistor_SMD:R_0402_1005Metric" V 3280 3900 50  0001 C CNN
F 3 "~" H 3350 3900 50  0001 C CNN
	1    3350 3900
	1    0    0    -1  
$EndComp
$Comp
L Device:R R3
U 1 1 5D8B8772
P 3350 2900
F 0 "R3" H 3420 2946 50  0000 L CNN
F 1 "100R" H 3420 2855 50  0000 L CNN
F 2 "Resistor_SMD:R_0402_1005Metric" V 3280 2900 50  0001 C CNN
F 3 "~" H 3350 2900 50  0001 C CNN
	1    3350 2900
	1    0    0    -1  
$EndComp
$Comp
L Device:R R4
U 1 1 5D8B87B0
P 3450 2900
F 0 "R4" H 3520 2946 50  0000 L CNN
F 1 "100R" H 3520 2855 50  0000 L CNN
F 2 "Resistor_SMD:R_0402_1005Metric" V 3380 2900 50  0001 C CNN
F 3 "~" H 3450 2900 50  0001 C CNN
	1    3450 2900
	1    0    0    -1  
$EndComp
$Comp
L Device:R R5
U 1 1 5D8B87D6
P 3550 2900
F 0 "R5" H 3620 2946 50  0000 L CNN
F 1 "100R" H 3620 2855 50  0000 L CNN
F 2 "Resistor_SMD:R_0402_1005Metric" V 3480 2900 50  0001 C CNN
F 3 "~" H 3550 2900 50  0001 C CNN
	1    3550 2900
	1    0    0    -1  
$EndComp
$Comp
L Device:R R6
U 1 1 5D8B87FE
P 3650 2900
F 0 "R6" H 3720 2946 50  0000 L CNN
F 1 "100R" H 3720 2855 50  0000 L CNN
F 2 "Resistor_SMD:R_0402_1005Metric" V 3580 2900 50  0001 C CNN
F 3 "~" H 3650 2900 50  0001 C CNN
	1    3650 2900
	1    0    0    -1  
$EndComp
Wire Wire Line
	3350 2700 3350 2750
Wire Wire Line
	3450 2700 3450 2750
Wire Wire Line
	3550 2700 3550 2750
Wire Wire Line
	3650 2700 3650 2750
Wire Wire Line
	3350 3050 3350 3500
Wire Wire Line
	3450 3050 3450 3200
Connection ~ 3350 3500
$Comp
L Device:R R1
U 1 1 5D8BAB26
P 3450 3900
F 0 "R1" V 3550 4000 50  0000 C CNN
F 1 "1k" V 3400 4050 50  0000 C CNN
F 2 "Resistor_SMD:R_0402_1005Metric" V 3380 3900 50  0001 C CNN
F 3 "~" H 3450 3900 50  0001 C CNN
	1    3450 3900
	1    0    0    -1  
$EndComp
$Comp
L Device:R R7
U 1 1 5D8BAB5E
P 3550 3900
F 0 "R7" V 3650 4000 50  0000 C CNN
F 1 "1k" V 3500 4050 50  0000 C CNN
F 2 "Resistor_SMD:R_0402_1005Metric" V 3480 3900 50  0001 C CNN
F 3 "~" H 3550 3900 50  0001 C CNN
	1    3550 3900
	-1   0    0    1   
$EndComp
$Comp
L Device:R R8
U 1 1 5D8BABAA
P 3650 3900
F 0 "R8" V 3750 4000 50  0000 C CNN
F 1 "1k" V 3600 4050 50  0000 C CNN
F 2 "Resistor_SMD:R_0402_1005Metric" V 3580 3900 50  0001 C CNN
F 3 "~" H 3650 3900 50  0001 C CNN
	1    3650 3900
	-1   0    0    1   
$EndComp
Connection ~ 3450 3200
Connection ~ 3550 3200
Wire Wire Line
	3550 3200 3550 3050
Connection ~ 3650 3500
Wire Wire Line
	3650 3500 3650 3050
Wire Wire Line
	4700 3000 4850 3000
Wire Wire Line
	4700 3700 4850 3700
Wire Wire Line
	4000 3700 4100 3700
Wire Wire Line
	4000 3000 4100 3000
Wire Wire Line
	3100 3700 3200 3700
Wire Wire Line
	2350 3700 2500 3700
Wire Wire Line
	2350 3000 2500 3000
Wire Wire Line
	3100 3000 3200 3000
$Comp
L Connector:Conn_01x01_Male J3
U 1 1 5D8C0611
P 3600 1400
F 0 "J3" V 3660 1440 50  0000 L CNN
F 1 "Conn_01x01_Male" V 3751 1440 50  0000 L CNN
F 2 "Connector_PinHeader_2.54mm:PinHeader_1x01_P2.54mm_Vertical" H 3600 1400 50  0001 C CNN
F 3 "~" H 3600 1400 50  0001 C CNN
	1    3600 1400
	0    1    1    0   
$EndComp
Wire Wire Line
	3600 1600 3600 1750
Wire Wire Line
	3650 3500 4400 3500
Wire Wire Line
	3550 3200 4400 3200
Wire Wire Line
	2800 3200 3450 3200
Wire Wire Line
	2800 3500 3350 3500
Wire Wire Line
	3350 3500 3350 3750
Wire Wire Line
	3450 3200 3450 3750
Wire Wire Line
	3550 3200 3550 3750
Wire Wire Line
	3650 3500 3650 3750
Wire Wire Line
	3350 4150 3350 4050
Wire Wire Line
	3450 4150 3450 4050
Wire Wire Line
	3550 4150 3550 4050
Wire Wire Line
	3650 4150 3650 4050
$Comp
L Regulator_Linear:L7805 U2
U 1 1 5D8C6E85
P 6850 2300
F 0 "U2" V 6896 2404 50  0000 L CNN
F 1 "L7805" V 6805 2404 50  0000 L CNN
F 2 "Package_TO_SOT_THT:TO-220-3_Vertical" H 6875 2150 50  0001 L CIN
F 3 "http://www.st.com/content/ccc/resource/technical/document/datasheet/41/4f/b3/b0/12/d4/47/88/CD00000444.pdf/files/CD00000444.pdf/jcr:content/translations/en.CD00000444.pdf" H 6850 2250 50  0001 C CNN
	1    6850 2300
	0    -1   -1   0   
$EndComp
$Comp
L Connector:Conn_01x02_Male J4
U 1 1 5D8C6FEF
P 7550 1700
F 0 "J4" H 7656 1878 50  0000 C CNN
F 1 "Conn_01x02_Male" H 7656 1787 50  0000 C CNN
F 2 "Connector_PinHeader_2.54mm:PinHeader_1x02_P2.54mm_Vertical" H 7550 1700 50  0001 C CNN
F 3 "~" H 7550 1700 50  0001 C CNN
	1    7550 1700
	-1   0    0    1   
$EndComp
$Comp
L Connector:Conn_01x02_Male J5
U 1 1 5D8C70D6
P 7550 2850
F 0 "J5" H 7656 3028 50  0000 C CNN
F 1 "Conn_01x02_Male" H 7656 2937 50  0000 C CNN
F 2 "Connector_PinHeader_2.54mm:PinHeader_1x02_P2.54mm_Vertical" H 7550 2850 50  0001 C CNN
F 3 "~" H 7550 2850 50  0001 C CNN
	1    7550 2850
	-1   0    0    1   
$EndComp
$Comp
L power:GND #PWR0112
U 1 1 5D8C71A5
P 7500 2300
F 0 "#PWR0112" H 7500 2050 50  0001 C CNN
F 1 "GND" H 7505 2127 50  0000 C CNN
F 2 "" H 7500 2300 50  0001 C CNN
F 3 "" H 7500 2300 50  0001 C CNN
	1    7500 2300
	1    0    0    -1  
$EndComp
$Comp
L power:VDD #PWR0113
U 1 1 5D8C89C8
P 6850 1600
F 0 "#PWR0113" H 6850 1450 50  0001 C CNN
F 1 "VDD" H 6867 1773 50  0000 C CNN
F 2 "" H 6850 1600 50  0001 C CNN
F 3 "" H 6850 1600 50  0001 C CNN
	1    6850 1600
	1    0    0    -1  
$EndComp
Wire Wire Line
	7350 1700 7350 2300
Wire Wire Line
	7500 2300 7350 2300
Connection ~ 7350 2300
Wire Wire Line
	7350 2300 7350 2750
Wire Wire Line
	7350 2300 7150 2300
$Comp
L power:VCC #PWR0114
U 1 1 5D8CAC18
P 6850 2850
F 0 "#PWR0114" H 6850 2700 50  0001 C CNN
F 1 "VCC" H 6868 3023 50  0000 C CNN
F 2 "" H 6850 2850 50  0001 C CNN
F 3 "" H 6850 2850 50  0001 C CNN
	1    6850 2850
	-1   0    0    1   
$EndComp
Wire Wire Line
	7350 2850 6850 2850
Wire Wire Line
	6850 2850 6850 2600
Connection ~ 6850 2850
Wire Wire Line
	7350 1600 6850 1600
Wire Wire Line
	6850 1600 6850 2000
Connection ~ 6850 1600
$Comp
L Device:D_Zener D5
U 1 1 5D8CD5ED
P 5550 1300
F 0 "D5" H 5550 1516 50  0000 C CNN
F 1 "1N4734A" H 5550 1425 50  0000 C CNN
F 2 "Diode_THT:D_DO-41_SOD81_P7.62mm_Horizontal" H 5550 1300 50  0001 C CNN
F 3 "~" H 5550 1300 50  0001 C CNN
	1    5550 1300
	1    0    0    -1  
$EndComp
$Comp
L power:GND #PWR0115
U 1 1 5D8CD6D7
P 5850 1300
F 0 "#PWR0115" H 5850 1050 50  0001 C CNN
F 1 "GND" H 5855 1127 50  0000 C CNN
F 2 "" H 5850 1300 50  0001 C CNN
F 3 "" H 5850 1300 50  0001 C CNN
	1    5850 1300
	1    0    0    -1  
$EndComp
$Comp
L power:VDD #PWR0116
U 1 1 5D8CD73F
P 5250 1300
F 0 "#PWR0116" H 5250 1150 50  0001 C CNN
F 1 "VDD" H 5267 1473 50  0000 C CNN
F 2 "" H 5250 1300 50  0001 C CNN
F 3 "" H 5250 1300 50  0001 C CNN
	1    5250 1300
	1    0    0    -1  
$EndComp
Wire Wire Line
	5850 1300 5700 1300
Wire Wire Line
	5400 1300 5250 1300
$Comp
L power:GND #PWR0117
U 1 1 5D8C93C7
P 3950 4750
F 0 "#PWR0117" H 3950 4500 50  0001 C CNN
F 1 "GND" H 3955 4577 50  0000 C CNN
F 2 "" H 3950 4750 50  0001 C CNN
F 3 "" H 3950 4750 50  0001 C CNN
	1    3950 4750
	-1   0    0    1   
$EndComp
Wire Wire Line
	3950 4750 3650 4750
Wire Wire Line
	3350 4750 3350 4650
Wire Wire Line
	3450 4650 3450 4750
Connection ~ 3450 4750
Wire Wire Line
	3450 4750 3350 4750
Wire Wire Line
	3550 4650 3550 4750
Connection ~ 3550 4750
Wire Wire Line
	3550 4750 3450 4750
Wire Wire Line
	3650 4650 3650 4750
Connection ~ 3650 4750
Wire Wire Line
	3650 4750 3550 4750
$Comp
L power:GND #PWR0118
U 1 1 5D8CCA77
P 2750 1600
F 0 "#PWR0118" H 2750 1350 50  0001 C CNN
F 1 "GND" H 2755 1427 50  0000 C CNN
F 2 "" H 2750 1600 50  0001 C CNN
F 3 "" H 2750 1600 50  0001 C CNN
	1    2750 1600
	1    0    0    -1  
$EndComp
Wire Wire Line
	2750 1600 2900 1600
Wire Wire Line
	3000 1600 3000 1550
Wire Wire Line
	2900 1600 2900 1550
Connection ~ 2900 1600
Wire Wire Line
	2900 1600 3000 1600
$Comp
L Connector:Conn_01x04_Male J1
U 1 1 5D8D0703
P 3100 1350
F 0 "J1" V 3160 1490 50  0000 L CNN
F 1 "Conn_01x04_Male" V 3251 1490 50  0000 L CNN
F 2 "Connector_PinHeader_2.54mm:PinHeader_1x04_P2.54mm_Vertical" H 3100 1350 50  0001 C CNN
F 3 "~" H 3100 1350 50  0001 C CNN
	1    3100 1350
	0    1    1    0   
$EndComp
$Comp
L Connector_Generic:Conn_02x04_Counter_Clockwise J2
U 1 1 5D8D1F7E
P 3550 4350
F 0 "J2" V 3554 4530 50  0000 L CNN
F 1 "Conn_02x04_Counter_Clockwise" V 3645 4530 50  0000 L CNN
F 2 "avrivoi:PinHeader_2x04_P2.54mm_Vertical" H 3550 4350 50  0001 C CNN
F 3 "~" H 3550 4350 50  0001 C CNN
	1    3550 4350
	0    1    1    0   
$EndComp
$EndSCHEMATC
